<?xml version="1.0" encoding="utf-8"?>
<!-- Generator: Adobe Illustrator 24.1.2, SVG Export Plug-In . SVG Version: 6.00 Build 0)  -->
<svg version="1.1" id="Camada_1" xmlns="http://www.w3.org/2000/svg" xmlns:xlink="http://www.w3.org/1999/xlink" x="0px" y="0px"
	 viewBox="0 0 20 20" style="enable-background:new 0 0 20 20;" xml:space="preserve">
<style type="text/css">
	.st0{fill:#AFAFAF;}
</style>
<path class="st0" d="M7.8,8.9c0.8,1.4,1.9,2.5,3.3,3.3l0.7-1c0.1-0.2,0.3-0.3,0.5-0.3c0.2,0,0.4,0,0.6,0.1c1.2,0.6,2.5,1,3.8,1.1
	c0.2,0,0.4,0.1,0.5,0.3c0.1,0.2,0.2,0.4,0.2,0.6v3.7c0,0.2-0.1,0.4-0.2,0.6c-0.1,0.2-0.3,0.2-0.5,0.3c-0.4,0-0.9,0.1-1.3,0.1
	c-7.1,0-12.9-5.8-12.9-12.9c0-0.4,0-0.9,0.1-1.3c0-0.2,0.1-0.4,0.3-0.5C3,2.6,3.2,2.5,3.4,2.5h3.7c0.2,0,0.4,0.1,0.6,0.2
	c0.2,0.1,0.2,0.3,0.3,0.5c0.1,1.3,0.5,2.6,1.1,3.8c0.1,0.2,0.1,0.4,0.1,0.6C9.1,7.9,9,8,8.8,8.2L7.8,8.9z M5.7,8.4l1.6-1.1
	c-0.4-1-0.8-2-0.9-3.1H4.2c0,0.1,0,0.3,0,0.4c0,6.2,5,11.2,11.2,11.2c0.1,0,0.3,0,0.4,0v-2.2c-1.1-0.2-2.1-0.5-3.1-0.9l-1.1,1.6
	c-0.5-0.2-0.9-0.4-1.3-0.6l0,0c-1.6-0.9-3-2.3-3.9-3.9l0,0C6.1,9.3,5.9,8.8,5.7,8.4z"/>
</svg>
