<?xml version="1.0" encoding="utf-8"?>
<!-- Generator: Adobe Illustrator 24.1.2, SVG Export Plug-In . SVG Version: 6.00 Build 0)  -->
<svg version="1.1" id="Camada_1" xmlns="http://www.w3.org/2000/svg" xmlns:xlink="http://www.w3.org/1999/xlink" x="0px" y="0px"
	 viewBox="0 0 24 24" style="enable-background:new 0 0 24 24;" xml:space="preserve">
<style type="text/css">
	.st0{fill:#AFAFAF;}
</style>
<path class="st0" d="M19,10V7c0-0.5-0.2-1-0.6-1.4C18,5.2,17.5,5,17,5H7C6.5,5,6,5.2,5.6,5.6C5.2,6,5,6.5,5,7v3
	c-0.5,0-1,0.2-1.4,0.6C3.2,11,3,11.5,3,12v5h1.3L5,19h1l0.7-2h10.7l0.7,2h1l0.7-2H21v-5c0-0.5-0.2-1-0.6-1.4C20,10.2,19.5,10,19,10z
	 M7,7h10v3H7V7z M19,15H5v-3h14V15z"/>
</svg>
